…
5.  Найти самого высокого персонажа.

<!-- -->

    > print(starwars %>% select(name, height) %>% arrange(desc(height)), n=1)
    # A tibble: 87 × 2
      name        height
      <chr>        <int>
    1 Yarael Poof    264
    # ℹ 86 more rows
    # ℹ Use `print(n = ...)` to see more rows
…
